{
  "type": "service_account",
  "project_id": "teee-bac06",
  "private_key_id": "79aebe37d9ef0f8936924ed850c1a700dfac6487",
  "private_key": "-----BEGIN PRIVATE KEY-----\nMIIEvgIBADANBgkqhkiG9w0BAQEFAASCBKgwggSkAgEAAoIBAQDTBv9jCV5097tC\nltAH+KNj6ARKimieHdiUO8oYCN+XZ/PlUz+dxHft5uGE2IP5cLe9pqchmrQPUdQg\nVbOu62aPxM+W/82rH49y3q//0Bq743ueZPsV7qb5E3oiffvLc39zEiqxEUXOO7Jv\nKFra4JKrcgEZhE1QH9OIYpXCr7N3bsiaZpVgBY7k2m8j++zbHxf2DyD4r6Z6jEUx\npr9YwLeApRTSPFTiNDXUE3rc0LkBo3sr/aQXt6g4WALG724aQSFDqZA6bLyqqRbL\nuU2Nj4rNekpbvR9r4x9PwD9Y3oh+QP7F0qTENC3RVItVTXPfUxp+prRPPacXQCXQ\nuWWtWSqRAgMBAAECggEASkoi2xsfwR67MjiEeOHrp061QAaUyOEp7xlTTn3FNPh4\nEKnrcd+J9tr6VnmgkE5BqQbDvJ1JOUFt44o4LOKbIw6+o+Je5ZjBN8e0fuKknrN5\nP+w9xl1TM8lLDFx8qYV5/ykMlXRGtlEmwmIbBgXcLHYAdBqy2vuxTMij/zs6e1cF\nidKtuAXpZJOH2Uvb/4N7IP5Um7w+Bqgo02/mOAMhLseqzAyY8vb8N2/7sEp4cCuz\nlP2v1DmK1E4cqE2e08xo8vC8M0xjPb1lrMusI73vYMOCN+lC1PWoyGI6WsZzyjaj\ncrpYXz88d7s/ATYY3e9TDIRkv6uL7ZH4QtUaSvPy7wKBgQDxzxU8N+2YTmoVtY5s\nyDJyP04gm3WDnRlKO+kR5IQ0mnsznD7bMMDm8/wUv1nESX6ejp4IHoAuauPA61rL\na4+WADEI/+VzMkHILUzdn/Xy3DQgb0ymHNZexNf4XItI8YocrJ4rbp1LjtvQbxfv\nAMTMpWlagoZtnM3jE1CglgdqnwKBgQDfaXRnyjhykXrV+V/VFj4I0rdUhrG8hz4i\n1nE8Yywox2KXGUT7sUji5WSeo+xrqo4ywvD8F9OHTAJw6ThQ2F4EPRxdIVhiTqML\nBS3ic0WePLpMtGezJ6/jM0bq32Z0YCdk7TeoSpS9a+bG6Tyz6QXUapdw+ndwPEhP\nDv5hcBWMzwKBgHxTnPd5ShAlQSYoUzJbPJTBN8pMI/+npnkklJE+jTr+spm2nBrW\n1lfo2pNQTzc9En0zls1V4VH8Y12tpOEyTIEzWALoj3DLRkdGA19v/2T/E04Z6678\n5LuVOfXYn0TB6+ESX8C0/ur6aMqiVAvuuUD/S0veEIALP1ChfbMTcHzBAoGBANf6\n/dL89zcjF2pWq+O3nf8vnpZzpM4KvPI297+WbHF71/8VKdBdIoZfl7eZ54xqlQ/T\nz98WNaOdwtpfTNczZSiZ35rVCrn3Jb4YorRCFjKUqNJQsdPL8UknIE8d69Fjx5HV\nlrH2b/bzomX3w3x2MPGano9VRDRXwtvTNe8CyYKXAoGBAMv3B21gT+0kGm4R56EM\nlV4zTI/2rud8DadwVnkCiI2x2dEutEGp8nxb3wWLa7d8glcvw+lNWWYcs8qIEUxl\n/q2wtVzQruvAKt/b6s9HbIjjFSvbJGp5JTGy5mfazWegN3L/kk2H0n/dHxTkRmOT\n7eb7KAvze/49Qtn4uoTYk4j2\n-----END PRIVATE KEY-----\n",
  "client_email": "firebase-adminsdk-v80yo@teee-bac06.iam.gserviceaccount.com",
  "client_id": "109968165565746316281",
  "auth_uri": "https://accounts.google.com/o/oauth2/auth",
  "token_uri": "https://oauth2.googleapis.com/token",
  "auth_provider_x509_cert_url": "https://www.googleapis.com/oauth2/v1/certs",
  "client_x509_cert_url": "https://www.googleapis.com/robot/v1/metadata/x509/firebase-adminsdk-v80yo%40teee-bac06.iam.gserviceaccount.com"
}